* source WHYHPWHY
M_M1         N00204 N00370 0 0 MbreakN           
M_M2         N00204 N00392 0 0 Mbreakn           
M_M3         N00204 N00392 N00200 N00200 Mbreakp           
M_M4         N00200 N00370 N00188 N00188 MbreakP           
V_V1         N00188 0 5V
V_V2         N00392 0  
+PULSE 0V 5V 10ns 0.1ns 0.1ns 25ns 50ns
V_V3         N00370 0  
+PULSE 0V 5V 10ns 0.1ns 0.1ns 50ns 100ns
